…
 # County map data
counties <- map_data("county")  # data of coordinates of all counties in the US

 # Combined county data
all_county <- tidy_tuesday5 %>% 
  mutate(County=tolower(County), State=tolower(State)) %>%  # change county and state name to lowercase
  inner_join(counties, by=c("County" = "subregion", "State" = "region"))

all_county  # explore data
```

    ## # A tibble: 86,284 x 41
    ##    CensusId State County TotalPop   Men Women Hispanic White Black Native
    ##       <dbl> <chr> <chr>     <dbl> <dbl> <dbl>    <dbl> <dbl> <dbl>  <dbl>
    ##  1     1001 alab… autau…    55221 26745 28476      2.6  75.8  18.5    0.4
    ##  2     1001 alab… autau…    55221 26745 28476      2.6  75.8  18.5    0.4
    ##  3     1001 alab… autau…    55221 26745 28476      2.6  75.8  18.5    0.4
    ##  4     1001 alab… autau…    55221 26745 28476      2.6  75.8  18.5    0.4
    ##  5     1001 alab… autau…    55221 26745 28476      2.6  75.8  18.5    0.4
    ##  6     1001 alab… autau…    55221 26745 28476      2.6  75.8  18.5    0.4
    ##  7     1001 alab… autau…    55221 26745 28476      2.6  75.8  18.5    0.4
    ##  8     1001 alab… autau…    55221 26745 28476      2.6  75.8  18.5    0.4
    ##  9     1001 alab… autau…    55221 26745 28476      2.6  75.8  18.5    0.4
    ## 10     1001 alab… autau…    55221 26745 28476      2.6  75.8  18.5    0.4
    ## # … with 86,274 more rows, and 31 more variables: Asian <dbl>,
    ## #   Pacific <dbl>, Citizen <dbl>, Income <dbl>, IncomeErr <dbl>,
    ## #   IncomePerCap <dbl>, IncomePerCapErr <dbl>, Poverty <dbl>,
    ## #   ChildPoverty <dbl>, Professional <dbl>, Service <dbl>, Office <dbl>,
    ## #   Construction <dbl>, Production <dbl>, Drive <dbl>, Carpool <dbl>,
    ## #   Transit <dbl>, Walk <dbl>, OtherTransp <dbl>, WorkAtHome <dbl>,
    ## #   MeanCommute <dbl>, Employed <dbl>, PrivateWork <dbl>,
    ## #   PublicWork <dbl>, SelfEmployed <dbl>, FamilyWork <dbl>,
    ## #   Unemployment <dbl>, long <dbl>, lat <dbl>, group <dbl>, order <int>
…
<!-- end list -->

``` r
 # Load data
voter_data <- read_csv("https://raw.githubusercontent.com/rfordatascience/tidytuesday/master/data/2018/2018-10-09/voter_turnout.csv")

 # Remove overall country voter data
state_data <- voter_data %>% 
  filter(!state %in% c("United States", "United States (Excl. Louisiana)"))

state_data 
```

    ## # A tibble: 918 x 7
    ##       X1  year icpsr_state_code alphanumeric_st… state  votes
    ##    <dbl> <dbl>            <dbl>            <dbl> <chr>  <dbl>
    ##  1     2  2014               41                1 Alab… 1.19e6
    ##  2     3  2014               81                2 Alas… 2.85e5
    ##  3     4  2014               61                3 Ariz… 1.54e6
    ##  4     5  2014               42                4 Arka… 8.53e5
    ##  5     6  2014               71                5 Cali… 7.51e6
    ##  6     7  2014               62                6 Colo… 2.08e6
    ##  7     8  2014                1                7 Conn… 1.10e6
    ##  8     9  2014               11                8 Dela… 2.38e5
    ##  9    10  2014               55                9 Dist… 1.77e5
    ## 10    11  2014               43               10 Flor… 6.03e6
    ## # … with 908 more rows, and 1 more variable: eligible_voters <dbl>
…
<!-- end list -->

``` r
states = map_data("state") 

turbine_data <- read_csv("https://raw.githubusercontent.com/rfordatascience/tidytuesday/master/data/2018/2018-11-06/us_wind.csv", na=c("n/a", "-9999", "missing"))

turbine_data <- turbine_data %>% 
  filter(!is.na(p_year))  # remove NAs

turbine_data
```

    ## # A tibble: 58,123 x 24
    ##    case_id faa_ors faa_asn usgs_pr_id t_state t_county t_fips p_name p_year
    ##      <dbl> <chr>   <chr>        <dbl> <chr>   <chr>    <chr>  <chr>   <dbl>
    ##  1 3073429 <NA>    <NA>          4960 CA      Kern Co… 06029  251 W…   1987
    ##  2 3071522 <NA>    <NA>          4997 CA      Kern Co… 06029  251 W…   1987
    ##  3 3073425 <NA>    <NA>          4957 CA      Kern Co… 06029  251 W…   1987
    ##  4 3071569 <NA>    <NA>          5023 CA      Kern Co… 06029  251 W…   1987
    ##  5 3005252 <NA>    <NA>          5768 CA      Kern Co… 06029  251 W…   1987
    ##  6 3003862 <NA>    <NA>          5836 CA      Kern Co… 06029  251 W…   1987
    ##  7 3073370 <NA>    <NA>          4948 CA      Kern Co… 06029  251 W…   1987
    ##  8 3010101 <NA>    <NA>          5828 CA      Kern Co… 06029  251 W…   1987
    ##  9 3073324 <NA>    <NA>          4965 CA      Kern Co… 06029  251 W…   1987
    ## 10 3072659 <NA>    <NA>          5044 CA      Kern Co… 06029  251 W…   1987
    ## # … with 58,113 more rows, and 15 more variables: p_tnum <dbl>,
    ## #   p_cap <dbl>, t_manu <chr>, t_model <chr>, t_cap <dbl>, t_hh <dbl>,
    ## #   t_rd <dbl>, t_rsa <dbl>, t_ttlh <dbl>, t_conf_atr <dbl>,
    ## #   t_conf_loc <dbl>, t_img_date <chr>, t_img_srce <chr>, xlong <dbl>,
    ## #   ylat <dbl>
…
