…
### NYC Flights

  - The [nycflights13](https://github.com/hadley/nycflights13) data
    contains information about all flights that departed from NYC
    (e.g. EWR, JFK and LGA) in 2013 (336,776 flights in total).

<!-- end list -->

``` r
flights
```

    ## # A tibble: 336,776 x 19
    ##     year month   day dep_time sched_dep_time dep_delay arr_time
    ##    <int> <int> <int>    <int>          <int>     <dbl>    <int>
    ##  1  2013     1     1      517            515         2      830
    ##  2  2013     1     1      533            529         4      850
    ##  3  2013     1     1      542            540         2      923
    ##  4  2013     1     1      544            545        -1     1004
    ##  5  2013     1     1      554            600        -6      812
    ##  6  2013     1     1      554            558        -4      740
    ##  7  2013     1     1      555            600        -5      913
    ##  8  2013     1     1      557            600        -3      709
    ##  9  2013     1     1      557            600        -3      838
    ## 10  2013     1     1      558            600        -2      753
    ## # … with 336,766 more rows, and 12 more variables: sched_arr_time <int>,
    ## #   arr_delay <dbl>, carrier <chr>, flight <int>, tailnum <chr>,
    ## #   origin <chr>, dest <chr>, air_time <dbl>, distance <dbl>, hour <dbl>,
    ## #   minute <dbl>, time_hour <dttm>

<br>

**Exercise 7: Add a new variable to the flights dataset called
`kmPerMinute` by dividing the `distance` variable by the `air_time`
variable.**

``` r
flights
```

    ## # A tibble: 336,776 x 19
    ##     year month   day dep_time sched_dep_time dep_delay arr_time
    ##    <int> <int> <int>    <int>          <int>     <dbl>    <int>
    ##  1  2013     1     1      517            515         2      830
    ##  2  2013     1     1      533            529         4      850
    ##  3  2013     1     1      542            540         2      923
    ##  4  2013     1     1      544            545        -1     1004
    ##  5  2013     1     1      554            600        -6      812
    ##  6  2013     1     1      554            558        -4      740
    ##  7  2013     1     1      555            600        -5      913
    ##  8  2013     1     1      557            600        -3      709
    ##  9  2013     1     1      557            600        -3      838
    ## 10  2013     1     1      558            600        -2      753
    ## # … with 336,766 more rows, and 12 more variables: sched_arr_time <int>,
    ## #   arr_delay <dbl>, carrier <chr>, flight <int>, tailnum <chr>,
    ## #   origin <chr>, dest <chr>, air_time <dbl>, distance <dbl>, hour <dbl>,
    ## #   minute <dbl>, time_hour <dttm>

``` r
flights <- mutate(flights, kmPerMinute= distance/air_time)
flights
```

    ## # A tibble: 336,776 x 20
    ##     year month   day dep_time sched_dep_time dep_delay arr_time
    ##    <int> <int> <int>    <int>          <int>     <dbl>    <int>
    ##  1  2013     1     1      517            515         2      830
    ##  2  2013     1     1      533            529         4      850
    ##  3  2013     1     1      542            540         2      923
    ##  4  2013     1     1      544            545        -1     1004
    ##  5  2013     1     1      554            600        -6      812
    ##  6  2013     1     1      554            558        -4      740
    ##  7  2013     1     1      555            600        -5      913
    ##  8  2013     1     1      557            600        -3      709
    ##  9  2013     1     1      557            600        -3      838
    ## 10  2013     1     1      558            600        -2      753
    ## # … with 336,766 more rows, and 13 more variables: sched_arr_time <int>,
    ## #   arr_delay <dbl>, carrier <chr>, flight <int>, tailnum <chr>,
    ## #   origin <chr>, dest <chr>, air_time <dbl>, distance <dbl>, hour <dbl>,
    ## #   minute <dbl>, time_hour <dttm>, kmPerMinute <dbl>
…
  - Try running the following code which groups the players in the
    dataset by their college and then finds the average number of years
    players from different colleges are active.

<!-- end list -->

``` r
byCollege <- group_by(playerData, college)
summarise(byCollege, averageYearsActive = mean(years_active))
```

    ## # A tibble: 474 x 2
    ##    college                        averageYearsActive
    ##    <fct>                                       <dbl>
    ##  1 ""                                           4.54
    ##  2 Acadia University                            0   
    ##  3 Alabama - Huntsville                         0   
    ##  4 Alabama A&M University                       0   
    ##  5 Alabama State University                     1   
    ##  6 Albany State University                      8.6 
    ##  7 Alcorn State University                      6.25
    ##  8 Alliance College                             0   
    ##  9 American International College              10   
    ## 10 American University                         14   
    ## # … with 464 more rows
…
``` r
byStartYear <- group_by(playerData)
summarise(byStartYear)
```

    ## data frame with 0 columns and 0 rows

``` r
byStartYear <- group_by(playerData, year_start)
summarise(byStartYear, maxYearEnd = max(year_end))
```

    ## # A tibble: 72 x 2
    ##    year_start maxYearEnd
    ##         <int>      <dbl>
    ##  1       1947       1956
    ##  2       1948       1962
    ##  3       1949       1962
    ##  4       1950       1964
    ##  5       1951       1970
    ##  6       1952       1960
    ##  7       1953       1964
    ##  8       1954       1964
    ##  9       1955       1968
    ## 10       1956       1966
    ## # … with 62 more rows
…
``` r
byDestAndCarrier <- group_by(flights)
summarise(byDestAndCarrier)
```

    ## data frame with 0 columns and 0 rows

``` r
byDestAndCarrier <- group_by(flights, dest, carrier)
summarise(byDestAndCarrier, averageDistance = mean(distance))
```

    ## # A tibble: 314 x 3
    ## # Groups:   dest [?]
    ##    dest  carrier averageDistance
    ##    <chr> <chr>             <dbl>
    ##  1 ABQ   B6                1826 
    ##  2 ACK   B6                 199 
    ##  3 ALB   EV                 143 
    ##  4 ANC   UA                3370 
    ##  5 ATL   9E                 759.
    ##  6 ATL   DL                 757.
    ##  7 ATL   EV                 746.
    ##  8 ATL   FL                 762 
    ##  9 ATL   MQ                 762 
    ## 10 ATL   UA                 746 
    ## # … with 304 more rows

### `ungroup()`

  - If you wish to remove a grouping, you can do so simply by using the
    `ungroup()` function as follows:

<!-- end list -->

``` r
byCollege <- group_by(playerData, college)
ungroup(byCollege)
```

    ## # A tibble: 4,550 x 9
    ##    name  year_start year_end position height weight birth_date college
    ##    <fct>      <int>    <int> <fct>    <fct>   <int> <fct>      <fct>  
    ##  1 Alaa…       1991     1995 F-C      6-10      240 June 24, … Duke U…
    ##  2 Zaid…       1969     1978 C-F      6-9       235 April 7, … Iowa S…
    ##  3 Kare…       1970     1989 C        7-2       225 April 16,… Univer…
    ##  4 Mahm…       1991     2001 G        6-1       162 March 9, … Louisi…
    ##  5 Tari…       1998     2003 F        6-6       223 November … San Jo…
    ##  6 Shar…       1997     2008 F        6-9       225 December … Univer…
    ##  7 Tom …       1977     1981 F        6-7       220 May 6, 19… Indian…
    ##  8 Fore…       1957     1957 G        6-3       180 July 27, … Wester…
    ##  9 John…       1947     1948 F        6-3       195 February … Salem …
    ## 10 Alex…       2017     2018 G-F      6-6       190 August 1,… ""     
    ## # … with 4,540 more rows, and 1 more variable: years_active <int>
…
      - `some_data %>% function_1(f1_arg2 = value) %>%
        function_2(f2_arg2 = other_value)`

<br>

In exercise 9 we grouped the `flights` dataset by `dest` and `carrier`,
and then found the average distance for each grouping.  
**Exercise 10: Rewrite the code using the `%>%` operator.**

``` r
byDestAndCarrier <- group_by(flights, dest, carrier)
summarise(byDestAndCarrier, averageDistance = mean(distance))
```

    ## # A tibble: 314 x 3
    ## # Groups:   dest [?]
    ##    dest  carrier averageDistance
    ##    <chr> <chr>             <dbl>
    ##  1 ABQ   B6                1826 
    ##  2 ACK   B6                 199 
    ##  3 ALB   EV                 143 
    ##  4 ANC   UA                3370 
    ##  5 ATL   9E                 759.
    ##  6 ATL   DL                 757.
    ##  7 ATL   EV                 746.
    ##  8 ATL   FL                 762 
    ##  9 ATL   MQ                 762 
    ## 10 ATL   UA                 746 
    ## # … with 304 more rows

``` r
flights %>% 
  group_by(dest, carrier) %>%
  summarise(averageDistance = mean(distance))
```

    ## # A tibble: 314 x 3
    ## # Groups:   dest [?]
    ##    dest  carrier averageDistance
    ##    <chr> <chr>             <dbl>
    ##  1 ABQ   B6                1826 
    ##  2 ACK   B6                 199 
    ##  3 ALB   EV                 143 
    ##  4 ANC   UA                3370 
    ##  5 ATL   9E                 759.
    ##  6 ATL   DL                 757.
    ##  7 ATL   EV                 746.
    ##  8 ATL   FL                 762 
    ##  9 ATL   MQ                 762 
    ## 10 ATL   UA                 746 
    ## # … with 304 more rows
…
