…
### `group_by()`

-   The `group_by()` function groups entries in a dataset by given variables.

-   This is particularly useful when used in conjunction with the `summarise()` function.

-   Try running the following code which groups the players in the dataset by their college and then finds the average number of years players from different colleges are active.

``` r
byCollege <- group_by(playerData, college)
summarise(byCollege, averageYearsActive= mean(years_active))
```

    ## # A tibble: 474 x 2
    ##    college                        averageYearsActive
    ##    <fct>                                       <dbl>
    ##  1 ""                                           4.54
    ##  2 Acadia University                            0   
    ##  3 Alabama - Huntsville                         0   
    ##  4 Alabama A&M University                       0   
    ##  5 Alabama State University                     1   
    ##  6 Albany State University                      8.6 
    ##  7 Alcorn State University                      6.25
    ##  8 Alliance College                             0   
    ##  9 American International College              10   
    ## 10 American University                         14   
    ## # ... with 464 more rows
…
